simulation/qsim/CodeBlockSegmentation.msim.vcd
$comment
	File created using the following command:
		vcd file CodeBlockSegmentation.msim.vcd -direction
$end
$date
	Thu Mar 05 00:03:50 2020
$end
$version
	ModelSim Version 10.5b
$end
$timescale
	1ps
$end

$scope module data_fsm_vlg_vec_tst $end
$var reg 1 ! clk $end
$var reg 1 " empty_data_fifo $end
$var reg 1 # empty_size_fifo $end
$var reg 1 $ reset $end
$var reg 20 % size [19:0] $end
$var wire 1 & block_size $end
$var wire 1 ' crc $end
$var wire 1 ( ena_crc $end
$var wire 1 ) filling $end
$var wire 1 * init_crc $end
$var wire 1 + mux_crc $end
$var wire 1 , mux_fill $end
$var wire 1 - nshift_crc $end
$var wire 1 . read_data_fifo $end
$var wire 1 / read_size_fifo $end
$var wire 1 0 start $end
$var wire 1 1 stop $end

$scope module i1 $end
$var wire 1 2 gnd $end
$var wire 1 3 vcc $end
$var wire 1 4 unknown $end
$var tri1 1 5 devclrn $end
$var tri1 1 6 devpor $end
$var tri1 1 7 devoe $end
$var wire 1 8 empty_data_fifo~input_o $end
$var wire 1 9 clk~input_o $end
$var wire 1 : empty_size_fifo~input_o $end
$var wire 1 ; next_state.READ_REQ~0_combout $end
$var wire 1 < reset~input_o $end
$var wire 1 = state_reg.READ_REQ~q $end
$var wire 1 > state_reg.READ_SIZE~q $end
$var wire 1 ? size[17]~input_o $end
$var wire 1 @ cm_in[1]~0_combout $end
$var wire 1 A Selector8~0_combout $end
$var wire 1 B size[16]~input_o $end
$var wire 1 C cm|LPM_SHIFTREG_component|dffs[0]~0_combout $end
$var wire 1 D size[19]~input_o $end
$var wire 1 E cp_in[1]~0_combout $end
$var wire 1 F size[18]~input_o $end
$var wire 1 G block_size~0_combout $end
$var wire 1 H cp|LPM_SHIFTREG_component|dffs[0]~0_combout $end
$var wire 1 I cp|LPM_SHIFTREG_component|dffs[0]~1_combout $end
$var wire 1 J Selector11~0_combout $end
$var wire 1 K Selector0~0_combout $end
$var wire 1 L Selector0~1_combout $end
$var wire 1 M state_reg.IDLE~q $end
$var wire 1 N req_crc|LPM_SHIFTREG_component|dffs[0]~0_combout $end
$var wire 1 O Selector6~0_combout $end
$var wire 1 P cnt_cb|LPM_COUNTER_component|auto_generated|counter_comb_bita0~sumout $end
$var wire 1 Q ~GND~combout $end
$var wire 1 R cnt_cb_load~0_combout $end
$var wire 1 S WideOr14~0_combout $end
$var wire 1 T cnt_cb|LPM_COUNTER_component|auto_generated|_~0_combout $end
$var wire 1 U cnt_cb|LPM_COUNTER_component|auto_generated|counter_comb_bita0~COUT $end
$var wire 1 V cnt_cb|LPM_COUNTER_component|auto_generated|counter_comb_bita1~sumout $end
$var wire 1 W cnt_cb|LPM_COUNTER_component|auto_generated|counter_comb_bita1~COUT $end
$var wire 1 X cnt_cb|LPM_COUNTER_component|auto_generated|counter_comb_bita2~sumout $end
$var wire 1 Y cnt_cb|LPM_COUNTER_component|auto_generated|counter_comb_bita2~COUT $end
$var wire 1 Z cnt_cb|LPM_COUNTER_component|auto_generated|counter_comb_bita3~sumout $end
$var wire 1 [ cnt_cb|LPM_COUNTER_component|auto_generated|counter_comb_bita3~COUT $end
$var wire 1 \ cnt_cb|LPM_COUNTER_component|auto_generated|counter_comb_bita4~sumout $end
$var wire 1 ] cnt_cb|LPM_COUNTER_component|auto_generated|counter_comb_bita4~COUT $end
$var wire 1 ^ cnt_cb|LPM_COUNTER_component|auto_generated|counter_comb_bita5~sumout $end
$var wire 1 _ cnt_cb|LPM_COUNTER_component|auto_generated|counter_comb_bita5~COUT $end
$var wire 1 ` cnt_cb|LPM_COUNTER_component|auto_generated|counter_comb_bita6~sumout $end
$var wire 1 a cnt_cb|LPM_COUNTER_component|auto_generated|counter_comb_bita6~COUT $end
$var wire 1 b cnt_cb|LPM_COUNTER_component|auto_generated|counter_comb_bita7~sumout $end
$var wire 1 c cnt_cb|LPM_COUNTER_component|auto_generated|counter_comb_bita7~COUT $end
$var wire 1 d cnt_cb|LPM_COUNTER_component|auto_generated|counter_comb_bita8~sumout $end
$var wire 1 e cnt_cb|LPM_COUNTER_component|auto_generated|counter_comb_bita8~COUT $end
$var wire 1 f cnt_cb|LPM_COUNTER_component|auto_generated|counter_comb_bita9~sumout $end
$var wire 1 g cnt_cb|LPM_COUNTER_component|auto_generated|counter_comb_bita9~COUT $end
$var wire 1 h cnt_cb|LPM_COUNTER_component|auto_generated|counter_comb_bita10~sumout $end
$var wire 1 i cnt_cb|LPM_COUNTER_component|auto_generated|counter_comb_bita10~COUT $end
$var wire 1 j cnt_cb|LPM_COUNTER_component|auto_generated|counter_comb_bita11~sumout $end
$var wire 1 k cnt_cb|LPM_COUNTER_component|auto_generated|counter_comb_bita11~COUT $end
$var wire 1 l cnt_cb|LPM_COUNTER_component|auto_generated|counter_comb_bita12~sumout $end
$var wire 1 m cnt_cb|LPM_COUNTER_component|auto_generated|counter_comb_bita12~COUT $end
$var wire 1 n cnt_cb|LPM_COUNTER_component|auto_generated|counter_comb_bita13~sumout $end
$var wire 1 o cnt_cb|LPM_COUNTER_component|auto_generated|counter_comb_bita13~COUT $end
$var wire 1 p cnt_cb|LPM_COUNTER_component|auto_generated|counter_comb_bita14~sumout $end
$var wire 1 q cnt_cb|LPM_COUNTER_component|auto_generated|counter_comb_bita14~COUT $end
$var wire 1 r cnt_cb|LPM_COUNTER_component|auto_generated|counter_comb_bita15~sumout $end
$var wire 1 s Equal0~0_combout $end
$var wire 1 t Equal0~1_combout $end
$var wire 1 u Equal12~1_combout $end
$var wire 1 v cnt_fill|LPM_COUNTER_component|auto_generated|counter_comb_bita0~sumout $end
$var wire 1 w size[0]~input_o $end
$var wire 1 x cnt_fl_in[0]~3_combout $end
$var wire 1 y cnt_fill|LPM_COUNTER_component|auto_generated|counter_comb_bita3~COUT $end
$var wire 1 z cnt_fill|LPM_COUNTER_component|auto_generated|counter_comb_bita4~sumout $end
$var wire 1 { size[4]~input_o $end
$var wire 1 | cnt_fl_in[4]~15_combout $end
$var wire 1 } cnt_fill|LPM_COUNTER_component|auto_generated|counter_comb_bita4~COUT $end
$var wire 1 ~ cnt_fill|LPM_COUNTER_component|auto_generated|counter_comb_bita5~sumout $end
$var wire 1 !! size[5]~input_o $end
$var wire 1 "! cnt_fl_in[5]~14_combout $end
$var wire 1 #! cnt_fill|LPM_COUNTER_component|auto_generated|counter_comb_bita5~COUT $end
$var wire 1 $! cnt_fill|LPM_COUNTER_component|auto_generated|counter_comb_bita6~sumout $end
$var wire 1 %! size[6]~input_o $end
$var wire 1 &! cnt_fl_in[6]~13_combout $end
$var wire 1 '! cnt_fill|LPM_COUNTER_component|auto_generated|counter_comb_bita6~COUT $end
$var wire 1 (! cnt_fill|LPM_COUNTER_component|auto_generated|counter_comb_bita7~sumout $end
$var wire 1 )! size[7]~input_o $end
$var wire 1 *! cnt_fl_in[7]~12_combout $end
$var wire 1 +! cnt_fill|LPM_COUNTER_component|auto_generated|counter_comb_bita7~COUT $end
$var wire 1 ,! cnt_fill|LPM_COUNTER_component|auto_generated|counter_comb_bita8~sumout $end
$var wire 1 -! size[8]~input_o $end
$var wire 1 .! cnt_fl_in[8]~11_combout $end
$var wire 1 /! cnt_fill|LPM_COUNTER_component|auto_generated|counter_comb_bita8~COUT $end
$var wire 1 0! cnt_fill|LPM_COUNTER_component|auto_generated|counter_comb_bita9~sumout $end
$var wire 1 1! size[9]~input_o $end
$var wire 1 2! cnt_fl_in[9]~10_combout $end
$var wire 1 3! cnt_fill|LPM_COUNTER_component|auto_generated|counter_comb_bita9~COUT $end
$var wire 1 4! cnt_fill|LPM_COUNTER_component|auto_generated|counter_comb_bita10~sumout $end
$var wire 1 5! size[10]~input_o $end
$var wire 1 6! cnt_fl_in[10]~9_combout $end
$var wire 1 7! cnt_fill|LPM_COUNTER_component|auto_generated|counter_comb_bita10~COUT $end
$var wire 1 8! cnt_fill|LPM_COUNTER_component|auto_generated|counter_comb_bita11~sumout $end
$var wire 1 9! size[11]~input_o $end
$var wire 1 :! cnt_fl_in[11]~8_combout $end
$var wire 1 ;! cnt_fill|LPM_COUNTER_component|auto_generated|counter_comb_bita11~COUT $end
$var wire 1 <! cnt_fill|LPM_COUNTER_component|auto_generated|counter_comb_bita12~sumout $end
$var wire 1 =! size[12]~input_o $end
$var wire 1 >! cnt_fl_in[12]~7_combout $end
$var wire 1 ?! cnt_fill|LPM_COUNTER_component|auto_generated|counter_comb_bita12~COUT $end
$var wire 1 @! cnt_fill|LPM_COUNTER_component|auto_generated|counter_comb_bita13~sumout $end
$var wire 1 A! size[13]~input_o $end
$var wire 1 B! cnt_fl_in[13]~6_combout $end
$var wire 1 C! cnt_fill|LPM_COUNTER_component|auto_generated|counter_comb_bita13~COUT $end
$var wire 1 D! cnt_fill|LPM_COUNTER_component|auto_generated|counter_comb_bita14~sumout $end
$var wire 1 E! size[14]~input_o $end
$var wire 1 F! cnt_fl_in[14]~5_combout $end
$var wire 1 G! cnt_fill|LPM_COUNTER_component|auto_generated|counter_comb_bita14~COUT $end
$var wire 1 H! cnt_fill|LPM_COUNTER_component|auto_generated|counter_comb_bita15~sumout $end
$var wire 1 I! size[15]~input_o $end
$var wire 1 J! cnt_fl_in[15]~4_combout $end
$var wire 1 K! Equal6~1_combout $end
$var wire 1 L! Equal6~2_combout $end
$var wire 1 M! cnt_fill|LPM_COUNTER_component|auto_generated|_~0_combout $end
$var wire 1 N! cnt_fill|LPM_COUNTER_component|auto_generated|counter_comb_bita0~COUT $end
$var wire 1 O! cnt_fill|LPM_COUNTER_component|auto_generated|counter_comb_bita1~sumout $end
$var wire 1 P! size[1]~input_o $end
$var wire 1 Q! cnt_fl_in[1]~2_combout $end
$var wire 1 R! cnt_fill|LPM_COUNTER_component|auto_generated|counter_comb_bita1~COUT $end
$var wire 1 S! cnt_fill|LPM_COUNTER_component|auto_generated|counter_comb_bita2~sumout $end
$var wire 1 T! size[2]~input_o $end
$var wire 1 U! cnt_fl_in[2]~1_combout $end
$var wire 1 V! cnt_fill|LPM_COUNTER_component|auto_generated|counter_comb_bita2~COUT $end
$var wire 1 W! cnt_fill|LPM_COUNTER_component|auto_generated|counter_comb_bita3~sumout $end
$var wire 1 X! size[3]~input_o $end
$var wire 1 Y! cnt_fl_in[3]~0_combout $end
$var wire 1 Z! Equal6~0_combout $end
$var wire 1 [! Selector3~0_combout $end
$var wire 1 \! Equal0~2_combout $end
$var wire 1 ]! Equal0~3_combout $end
$var wire 1 ^! Selector3~1_combout $end
$var wire 1 _! state_reg.READ_DATA~q $end
$var wire 1 `! Selector4~0_combout $end
$var wire 1 a! state_reg.OUT_CRC~q $end
$var wire 1 b! Selector5~0_combout $end
$var wire 1 c! state_reg.NEXT_BLOCK~q $end
$var wire 1 d! Selector1~0_combout $end
$var wire 1 e! state_reg.LOAD_SIZE~q $end
$var wire 1 f! Selector2~0_combout $end
$var wire 1 g! state_reg.FILLING~q $end
$var wire 1 h! Selector15~0_combout $end
$var wire 1 i! WideOr4~combout $end
$var wire 1 j! Equal12~0_combout $end
$var wire 1 k! Selector13~0_combout $end
$var wire 1 l! req_crc|LPM_SHIFTREG_component|dffs [0] $end
$var wire 1 m! cnt_cb|LPM_COUNTER_component|auto_generated|counter_reg_bit [15] $end
$var wire 1 n! cnt_cb|LPM_COUNTER_component|auto_generated|counter_reg_bit [14] $end
$var wire 1 o! cnt_cb|LPM_COUNTER_component|auto_generated|counter_reg_bit [13] $end
$var wire 1 p! cnt_cb|LPM_COUNTER_component|auto_generated|counter_reg_bit [12] $end
$var wire 1 q! cnt_cb|LPM_COUNTER_component|auto_generated|counter_reg_bit [11] $end
$var wire 1 r! cnt_cb|LPM_COUNTER_component|auto_generated|counter_reg_bit [10] $end
$var wire 1 s! cnt_cb|LPM_COUNTER_component|auto_generated|counter_reg_bit [9] $end
$var wire 1 t! cnt_cb|LPM_COUNTER_component|auto_generated|counter_reg_bit [8] $end
$var wire 1 u! cnt_cb|LPM_COUNTER_component|auto_generated|counter_reg_bit [7] $end
$var wire 1 v! cnt_cb|LPM_COUNTER_component|auto_generated|counter_reg_bit [6] $end
$var wire 1 w! cnt_cb|LPM_COUNTER_component|auto_generated|counter_reg_bit [5] $end
$var wire 1 x! cnt_cb|LPM_COUNTER_component|auto_generated|counter_reg_bit [4] $end
$var wire 1 y! cnt_cb|LPM_COUNTER_component|auto_generated|counter_reg_bit [3] $end
$var wire 1 z! cnt_cb|LPM_COUNTER_component|auto_generated|counter_reg_bit [2] $end
$var wire 1 {! cnt_cb|LPM_COUNTER_component|auto_generated|counter_reg_bit [1] $end
$var wire 1 |! cnt_cb|LPM_COUNTER_component|auto_generated|counter_reg_bit [0] $end
$var wire 1 }! cnt_fill|LPM_COUNTER_component|auto_generated|counter_reg_bit [15] $end
$var wire 1 ~! cnt_fill|LPM_COUNTER_component|auto_generated|counter_reg_bit [14] $end
$var wire 1 !" cnt_fill|LPM_COUNTER_component|auto_generated|counter_reg_bit [13] $end
$var wire 1 "" cnt_fill|LPM_COUNTER_component|auto_generated|counter_reg_bit [12] $end
$var wire 1 #" cnt_fill|LPM_COUNTER_component|auto_generated|counter_reg_bit [11] $end
$var wire 1 $" cnt_fill|LPM_COUNTER_component|auto_generated|counter_reg_bit [10] $end
$var wire 1 %" cnt_fill|LPM_COUNTER_component|auto_generated|counter_reg_bit [9] $end
$var wire 1 &" cnt_fill|LPM_COUNTER_component|auto_generated|counter_reg_bit [8] $end
$var wire 1 '" cnt_fill|LPM_COUNTER_component|auto_generated|counter_reg_bit [7] $end
$var wire 1 (" cnt_fill|LPM_COUNTER_component|auto_generated|counter_reg_bit [6] $end
$var wire 1 )" cnt_fill|LPM_COUNTER_component|auto_generated|counter_reg_bit [5] $end
$var wire 1 *" cnt_fill|LPM_COUNTER_component|auto_generated|counter_reg_bit [4] $end
$var wire 1 +" cnt_fill|LPM_COUNTER_component|auto_generated|counter_reg_bit [3] $end
$var wire 1 ," cnt_fill|LPM_COUNTER_component|auto_generated|counter_reg_bit [2] $end
$var wire 1 -" cnt_fill|LPM_COUNTER_component|auto_generated|counter_reg_bit [1] $end
$var wire 1 ." cnt_fill|LPM_COUNTER_component|auto_generated|counter_reg_bit [0] $end
$var wire 1 /" cm|LPM_SHIFTREG_component|dffs [1] $end
$var wire 1 0" cm|LPM_SHIFTREG_component|dffs [0] $end
$var wire 1 1" cp|LPM_SHIFTREG_component|dffs [1] $end
$var wire 1 2" cp|LPM_SHIFTREG_component|dffs [0] $end
$upscope $end
$upscope $end
$enddefinitions $end
#0
$dumpvars
0!
0"
0#
1$
b0 %
0&
0'
1(
0)
1*
0+
1,
1-
0.
0/
00
01
02
13
x4
15
16
17
08
09
0:
1;
1<
0=
0>
0?
0@
0A
0B
0C
0D
0E
0F
0G
0H
0I
0J
1K
1L
0M
1N
1O
1P
0Q
0R
0S
0T
0U
1V
0W
1X
0Y
1Z
0[
1\
0]
1^
0_
1`
0a
1b
0c
1d
0e
1f
0g
1h
0i
1j
0k
1l
0m
1n
0o
1p
0q
1r
1s
1t
0u
1v
0w
0x
0y
1z
0{
0|
0}
1~
0!!
0"!
0#!
1$!
0%!
0&!
0'!
1(!
0)!
0*!
0+!
1,!
0-!
0.!
0/!
10!
01!
02!
03!
14!
05!
06!
07!
18!
09!
0:!
0;!
1<!
0=!
0>!
0?!
1@!
0A!
0B!
0C!
1D!
0E!
0F!
0G!
1H!
0I!
0J!
1K!
1L!
0M!
0N!
1O!
0P!
0Q!
0R!
1S!
0T!
0U!
0V!
1W!
0X!
0Y!
1Z!
0[!
0\!
0]!
0^!
0_!
0`!
0a!
0b!
0c!
0d!
0e!
0f!
0g!
0h!
0i!
0j!
0k!
0l!
0|!
0{!
0z!
0y!
0x!
0w!
0v!
0u!
0t!
0s!
0r!
0q!
0p!
0o!
0n!
0m!
0."
0-"
0,"
0+"
0*"
0)"
0("
0'"
0&"
0%"
0$"
0#"
0""
0!"
0~!
0}!
00"
0/"
02"
01"
$end
#5000
1!
19
#10000
0!
09
#15000
1!
19
#20000
0!
09
#25000
1!
19
#30000
0$
0!
0<
09
#35000
1!
19
1l!
1M
1=
1/
1S
0O
1i!
0N
0;
0(
0*
#40000
0!
09
#45000
1!
19
1>
0=
0/
1M!
1J
1A
1d!
#50000
b1000000000000000000 %
b1010000000000000000 %
b1010000000000000010 %
b1010000000000000011 %
0!
1w
1P!
1B
1F
09
1Q!
1x
1I
1C
#55000
1!
19
1-"
1."
12"
10"
0>
1e!
10
0Q!
0M!
0x
1T
0J
1R
0K
0Z!
1N!
1R!
1[!
0d!
0C
0v
0O!
1V!
0[!
1M!
1O!
0S!
1k!
1^!
1f!
1.
1y
0W!
0k!
0^!
0.
1}
0z
1#!
0~
1'!
0$!
1+!
0(!
1/!
0,!
13!
00!
17!
04!
1;!
08!
1?!
0<!
1C!
0@!
1G!
0D!
0H!
#60000
1#
b10000000000000011 %
b11 %
b1 %
b0 %
0!
1:
0w
0P!
0B
0F
09
#65000
1!
19
0."
1w!
00"
1g!
0e!
0,
00
1)
0R
0A
0t
1_
0N!
0i!
0^
1v
1(
1a
0`
0O!
1c
0b
1e
0d
1g
0f
1i
0h
1k
0j
1m
0l
1o
0n
1q
0p
0r
#70000
0!
09
#75000
1!
19
0-"
1."
0w!
1x!
1y!
1z!
1{!
1|!
1U
1W
1Y
1[
1]
0_
1N!
0R!
0P
0V
0X
0Z
0\
1^
0v
1O!
1_
0a
1R!
0V!
1V
1X
1Z
1\
0^
1`
0O!
1S!
1a
0c
1V!
0y
0`
1b
0S!
1W!
1c
0e
1y
0}
0b
1d
0W!
1z
1e
0g
1}
0#!
0d
1f
0z
1~
1g
0i
1#!
0'!
0f
1h
0~
1$!
1i
0k
1'!
0+!
0h
1j
0$!
1(!
1k
0m
1+!
0/!
0j
1l
0(!
1,!
1m
0o
1/!
03!
0l
1n
0,!
10!
1o
0q
13!
07!
0n
1p
00!
14!
1q
17!
0;!
0p
1r
04!
18!
1;!
0?!
0r
08!
1<!
1?!
0C!
0<!
1@!
1C!
0G!
0@!
1D!
1G!
0D!
1H!
0H!
#80000
0!
09
#85000
1!
19
0."
0|!
0U
1Z!
0N!
1P
1v
0R!
1[!
0M!
0V
1O!
0f!
0V!
1S!
1k!
1^!
1.
0y
1W!
0}
1z
0#!
1~
0'!
1$!
0+!
1(!
0/!
1,!
03!
10!
07!
14!
0;!
18!
0?!
1<!
0C!
1@!
0G!
1D!
1H!
#90000
0!
09
#95000
1!
19
1_!
0{!
1|!
0g!
1,
0)
1U
0W
0[!
0P
1V
1W
0V
0X
1X
#100000
0!
09
#105000
1!
19
0|!
0U
1P
0W
1V
0X
#110000
0!
09
#115000
1!
19
0z!
1{!
1|!
1U
1W
1t
0Y
0P
0V
1X
1Y
1V
0X
0Z
1Z
#120000
0!
09
#125000
1!
19
0|!
0U
1P
0V
#130000
0!
09
#135000
1!
19
0{!
1|!
1j!
1u
1U
0W
0P
1V
1W
0Y
0V
1X
1`!
0^!
0k!
0.
1Y
0X
0Z
1Z
#140000
0!
09
#145000
1!
19
1a!
0_!
0|!
0-
0j!
0u
0U
1P
1h!
1+
1'
0W
1V
0Y
1X
0Z
#150000
0!
09
#155000
1!
19
0y!
1z!
1{!
1|!
1U
1W
0t
1Y
0[
0P
0V
0X
1Z
1[
1V
1X
0Z
0\
1\
#160000
0!
09
#165000
1!
19
0|!
0U
1P
0V
#170000
0!
09
#175000
1!
19
0{!
1|!
1U
0W
0P
1V
1W
0V
0X
1X
#180000
0!
09
#185000
1!
19
0|!
0U
1P
0W
1V
0X
#190000
0!
09
#195000
1!
19
0z!
1{!
1|!
1U
1W
1t
0Y
0P
0V
1X
1Y
0[
1V
0X
1Z
1[
0Z
0\
1\
#200000
0!
09
#205000
1!
19
0|!
0U
1P
0V
#210000
0!
09
#215000
1!
19
0{!
1|!
1j!
1U
0W
0P
1V
1W
0Y
0V
1X
1Y
0[
0X
1Z
1[
0Z
0\
1\
#220000
0!
09
#225000
1!
19
0|!
0j!
0U
1P
0W
1V
0Y
1X
0[
1Z
0\
#230000
0!
09
#235000
1!
19
0x!
1y!
1z!
1{!
1|!
1U
1W
0t
1Y
1[
0]
0P
0V
0X
0Z
1\
1]
0_
1V
1X
1Z
0\
1^
1_
0a
0^
1`
1a
0c
0`
1b
1c
0e
0b
1d
1e
0g
0d
1f
1g
0i
0f
1h
1i
0k
0h
1j
1k
0m
0j
1l
1m
0o
0l
1n
1o
0q
0n
1p
1q
0p
1r
0r
#240000
0!
09
#245000
1!
19
0|!
0U
1P
0V
#250000
0!
09
#255000
1!
19
0{!
1|!
1U
0W
0P
1V
1W
0V
0X
1X
#260000
0!
09
#265000
1!
19
0|!
0U
1P
0W
1V
0X
#270000
0!
09
#275000
1!
19
0z!
1{!
1|!
1U
1W
1t
0Y
0P
0V
1X
1Y
1V
0X
0Z
1Z
#280000
0!
09
#285000
1!
19
0|!
0U
1P
0V
#290000
0!
09
#295000
1!
19
0{!
1|!
1j!
1U
0W
0P
1V
1W
0Y
0V
1X
1Y
0X
0Z
1Z
#300000
0!
09
#305000
1!
19
0|!
0j!
0U
1P
0W
1V
0Y
1X
0Z
#310000
0!
09
#315000
1!
19
0y!
1z!
1{!
1|!
1U
1W
0t
1Y
0[
0P
0V
0X
1Z
1[
0]
1V
1X
0Z
1\
1]
0_
0\
1^
1_
0a
0^
1`
1a
0c
0`
1b
1c
0e
0b
1d
1e
0g
0d
1f
1g
0i
0f
1h
1i
0k
0h
1j
1k
0m
0j
1l
1m
0o
0l
1n
1o
0q
0n
1p
1q
0p
1r
0r
#320000
0!
09
#325000
1!
19
0|!
1\!
0U
1P
0V
#330000
0!
09
#335000
1!
19
0{!
1|!
0\!
1U
0W
0P
1V
1W
0V
0X
1X
#340000
0!
09
#345000
1!
19
0|!
0U
1P
0W
1V
0X
#350000
0!
09
#355000
1!
19
0z!
1{!
1|!
1U
1W
1t
0Y
0P
0V
1X
1Y
0[
1V
0X
1Z
1[
0]
0Z
1\
1]
0_
0\
1^
1_
0a
0^
1`
1a
0c
0`
1b
1c
0e
0b
1d
1e
0g
0d
1f
1g
0i
0f
1h
1i
0k
0h
1j
1k
0m
0j
1l
1m
0o
0l
1n
1o
0q
0n
1p
1q
0p
1r
0r
#360000
0!
09
#365000
1!
19
0|!
1\!
0U
1P
1]!
0V
1b!
0`!
#370000
0!
09
#375000
1!
19
0a!
0{!
1|!
1c!
11
1-
1j!
0\!
1U
0W
0S
0P
1V
0b!
1d!
1*
1W
0Y
0T
0]!
0V
1X
1Y
0[
0X
1Z
1[
0]
0Z
1\
1]
0_
0\
1^
1_
0a
0^
1`
1a
0c
0`
1b
1c
0e
0b
1d
1e
0g
0d
1f
1g
0i
0f
1h
1i
0k
0h
1j
1k
0m
0j
1l
1m
0o
0l
1n
1o
0q
0n
1p
1q
0p
1r
0r
#380000
0!
09
#385000
1!
19
1e!
0c!
01
10
1S
1i!
1[!
1R
1J
0h!
0d!
1G
1&
0+
0'
0(
0*
1T
1k!
1^!
0I
1.
#390000
0!
09
#395000
1!
19
1_!
1w!
1x!
0|!
02"
0e!
00
0R
1K
0J
0j!
0U
0t
0i!
0[!
0G
1P
1\
1^
0&
1(
0W
1V
0Y
1X
0[
1Z
0\
#400000
0!
09
#405000
1!
19
0x!
1y!
1z!
1{!
1|!
1U
1W
1Y
1[
0]
0P
0V
0X
0Z
1\
1]
1V
1X
1Z
0\
0^
1^
#410000
0!
09
#415000
1!
19
0|!
0U
1P
0V
#420000
0!
09
#425000
1!
19
0{!
1|!
1U
0W
0P
1V
1W
0V
0X
1X
#430000
0!
09
#435000
1!
19
0|!
0U
1P
0W
1V
0X
#440000
0!
09
#445000
1!
19
0z!
1{!
1|!
1U
1W
0Y
0P
0V
1X
1Y
1V
0X
0Z
1Z
#450000
0!
09
#455000
1!
19
0|!
0U
1P
0V
#460000
0!
09
#465000
1!
19
0{!
1|!
1U
0W
0P
1V
1W
0Y
0V
1X
1Y
0X
0Z
1Z
#470000
0!
09
#475000
1!
19
0|!
0U
1P
0W
1V
0Y
1X
0Z
#480000
0!
09
#485000
1!
19
0y!
1z!
1{!
1|!
1U
1W
1Y
0[
0P
0V
0X
1Z
1[
0]
1V
1X
0Z
1\
1]
0\
0^
1^
#490000
0!
09
#495000
1!
19
0|!
1\!
0U
1P
0V
#500000
0!
09
#505000
1!
19
0{!
1|!
0\!
1U
0W
0P
1V
1W
0V
0X
1X
#510000
0!
09
#515000
1!
19
0|!
0U
1P
0W
1V
0X
#520000
0!
09
#525000
1!
19
0z!
1{!
1|!
1U
1W
0Y
0P
0V
1X
1Y
0[
1V
0X
1Z
1[
0]
0Z
1\
1]
0\
0^
1^
#530000
0!
09
#535000
1!
19
0|!
1\!
0U
1P
0V
#540000
0!
09
#545000
1!
19
0{!
1|!
0\!
1U
0W
0P
1V
1W
0Y
0V
1X
1Y
0[
0X
1Z
1[
0]
0Z
1\
1]
0\
0^
1^
#550000
0!
09
#555000
1!
19
0|!
0U
1P
0W
1V
0Y
1X
0[
1Z
0]
1\
0^
#560000
0!
09
#565000
1!
19
0w!
1x!
1y!
1z!
1{!
1|!
1U
1W
1Y
1[
1]
0_
0P
0V
0X
0Z
0\
1^
1_
0a
1V
1X
1Z
1\
0^
1`
1a
0c
0`
1b
1c
0e
0b
1d
1e
0g
0d
1f
1g
0i
0f
1h
1i
0k
0h
1j
1k
0m
0j
1l
1m
0o
0l
1n
1o
0q
0n
1p
1q
0p
1r
0r
#570000
0!
09
#575000
1!
19
0|!
0U
1P
0V
#580000
0!
09
#585000
1!
19
0{!
1|!
1U
0W
0P
1V
1W
0V
0X
1X
#590000
0!
09
#595000
1!
19
0|!
0U
1P
0W
1V
0X
#600000
0!
09
#605000
1!
19
0z!
1{!
1|!
1U
1W
1t
0Y
0P
0V
1X
1Y
1V
0X
0Z
1Z
#610000
0!
09
#615000
1!
19
0|!
0U
1P
0V
#620000
0!
09
#625000
1!
19
0{!
1|!
1j!
1u
1U
0W
0P
1V
1W
0Y
0V
1X
1`!
0^!
0k!
0.
1Y
0X
0Z
1Z
#630000
0!
09
#635000
1!
19
1a!
0_!
0|!
0-
0j!
0u
0U
1P
1h!
1+
1'
0W
1V
0Y
1X
0Z
#640000
0!
09
#645000
1!
19
0y!
1z!
1{!
1|!
1U
1W
0t
1Y
0[
0P
0V
0X
1Z
1[
1V
1X
0Z
0\
1\
#650000
0!
09
#655000
1!
19
0|!
0U
1P
0V
#660000
0!
09
#665000
1!
19
0{!
1|!
1U
0W
0P
1V
1W
0V
0X
1X
#670000
0!
09
#675000
1!
19
0|!
0U
1P
0W
1V
0X
#680000
0!
09
#685000
1!
19
0z!
1{!
1|!
1U
1W
1t
0Y
0P
0V
1X
1Y
0[
1V
0X
1Z
1[
0Z
0\
1\
#690000
0!
09
#695000
1!
19
0|!
0U
1P
0V
#700000
0!
09
#705000
1!
19
0{!
1|!
1j!
1U
0W
0P
1V
1W
0Y
0V
1X
1Y
0[
0X
1Z
1[
0Z
0\
1\
#710000
0!
09
#715000
1!
19
0|!
0j!
0U
1P
0W
1V
0Y
1X
0[
1Z
0\
#720000
0!
09
#725000
1!
19
0x!
1y!
1z!
1{!
1|!
1U
1W
0t
1Y
1[
0]
0P
0V
0X
0Z
1\
1]
0_
1V
1X
1Z
0\
1^
1_
0a
0^
1`
1a
0c
0`
1b
1c
0e
0b
1d
1e
0g
0d
1f
1g
0i
0f
1h
1i
0k
0h
1j
1k
0m
0j
1l
1m
0o
0l
1n
1o
0q
0n
1p
1q
0p
1r
0r
#730000
0!
09
#735000
1!
19
0|!
0U
1P
0V
#740000
0!
09
#745000
1!
19
0{!
1|!
1U
0W
0P
1V
1W
0V
0X
1X
#750000
0!
09
#755000
1!
19
0|!
0U
1P
0W
1V
0X
#760000
0!
09
#765000
1!
19
0z!
1{!
1|!
1U
1W
1t
0Y
0P
0V
1X
1Y
1V
0X
0Z
1Z
#770000
0!
09
#775000
1!
19
0|!
0U
1P
0V
#780000
0!
09
#785000
1!
19
0{!
1|!
1j!
1U
0W
0P
1V
1W
0Y
0V
1X
1Y
0X
0Z
1Z
#790000
0!
09
#795000
1!
19
0|!
0j!
0U
1P
0W
1V
0Y
1X
0Z
#800000
0!
09
#805000
1!
19
0y!
1z!
1{!
1|!
1U
1W
0t
1Y
0[
0P
0V
0X
1Z
1[
0]
1V
1X
0Z
1\
1]
0_
0\
1^
1_
0a
0^
1`
1a
0c
0`
1b
1c
0e
0b
1d
1e
0g
0d
1f
1g
0i
0f
1h
1i
0k
0h
1j
1k
0m
0j
1l
1m
0o
0l
1n
1o
0q
0n
1p
1q
0p
1r
0r
#810000
0!
09
#815000
1!
19
0|!
1\!
0U
1P
0V
#820000
0!
09
#825000
1!
19
0{!
1|!
0\!
1U
0W
0P
1V
1W
0V
0X
1X
#830000
0!
09
#835000
1!
19
0|!
0U
1P
0W
1V
0X
#840000
0!
09
#845000
1!
19
0z!
1{!
1|!
1U
1W
1t
0Y
0P
0V
1X
1Y
0[
1V
0X
1Z
1[
0]
0Z
1\
1]
0_
0\
1^
1_
0a
0^
1`
1a
0c
0`
1b
1c
0e
0b
1d
1e
0g
0d
1f
1g
0i
0f
1h
1i
0k
0h
1j
1k
0m
0j
1l
1m
0o
0l
1n
1o
0q
0n
1p
1q
0p
1r
0r
#850000
0!
09
#855000
1!
19
0|!
1\!
0U
1P
1]!
0V
1b!
0`!
#860000
0!
09
